Groupe Politique,Président·e de Groupe,Note générale
La Métropole autrement,Jean-Paul BRET,"4,00"
Les Républicains et apparentés,Philippe COCHET,"2,53"
Centre démocrate Lyon Métropole,Eric DESBOS,"2,25"
"Communiste, Parti de gauche et républicain",Bernard GENIN,"4,14"
Synergies-Avenir,Marc GRIVEL,"0,00"
Europe Écologie – Les Verts et apparentés,Bertrand ARTIGNY,"4,66"
Lyon Métropole gauche solidaire,Rolland JACQUET,"3,11"
Métropole et territoires,Jean-Jacques SELLES,"0,00"
Socialistes et républicains métropolitains,Anne BRUGNERA,"2,45"
Parti Radical de Gauche,Ludivine PIANTONI,"3,43"
Centristes et indépendants – métropole pour tous,Fouziya BOUZERDA,"2,00"
Groupe de réflexions et d'actions métropolitaines (GRAM),Nathalie PERRIN-GILBERT,"3,89"
Union des Démocrates et Indépendants (UDI) et apparentés,Christophe GEOURJON,"2,00"